…
ClusteringMatrix<-group_by(TransWithAttribute, Store, Rule) %>% summarise(Transactions=sum(Present)) %>% spread(Rule, Transactions, fill=0)
ClusteringMatrix$TotalTrans<-rowSums(ClusteringMatrix[c(2:11)])

ClusterStoreOnTrans<-kmeans(as.matrix(ClusteringMatrix[2:11]), 3)

ClusteringMatrix$cluster<-ClusterStoreOnTrans$cluster
print(ClusteringMatrix)
```

```
## Source: local data frame [292 x 13]
## Groups: Store [292]
## 
##    Store     A     B     C     D     E     F     G     H     I     J
## *  <int> <dbl> <dbl> <dbl> <dbl> <dbl> <dbl> <dbl> <dbl> <dbl> <dbl>
## 1     29     0     0     0     0     0     0     0     0     0     1
## 2    136     0     0     0     0     0     0     1     0     0     0
## 3    177     0     0     0     1     0     0     0     0     0     0
## 4    191     1     0     2     1     2     0     0     1     0     1
## 5    227     0     0     0     0     1     0     1     0     0     0
## 6    279     1     1     0     0     0     0     0     0     0     1
## 7    287     0     0     0     0     0     0     0     0     1     0
## 8    296     0     0     0     0     1     0     0     1     0     0
## 9    300     0     0     0     1     0     0     0     0     0     0
## 10   323     1     0     0     0     0     0     0     0     1     1
## # ... with 282 more rows, and 2 more variables: TotalTrans <dbl>,
## #   cluster <int>
```
…
